	Unnamed: 0	robot_x	robot_y	robot_scale	wall_x	wall_y	wall_scale	Rendezvous	Deploy
10	10	17.129396349672824	6.014891209878055	12632.151415059408	-50.991458832754375	-28.71296023410214	10175.702843433359	0.22520661157024793	0.21074380165289255
11	11	33.48196110153345	43.16947400565017	10166.430480051842	98.89306647707113	111.03231477442802	15536.014314652584	0.19834710743801653	0.2024793388429752
12	12	47.7983820483315	-88.59118936436883	14494.247456940255	-103.19180437147946	42.312597405716446	5847.73895884407	0.19834710743801653	0.16115702479338842
13	13	-111.35368862172777	65.78884314554723	9612.745861315725	-98.49498220346081	19.45213260460565	20813.44390714831	0.16322314049586778	0.16528925619834711
14	14	79.84937872772721	-8.045143094661878	12099.818856068207	-34.609275815019245	-44.32906923561248	7506.400889519399	0.22933884297520662	0.1962809917355372
15	15	108.02466855429657	15.073047545121735	5522.9880433595845	29.196314553810055	-116.41107891804111	12337.852183855763	0.12603305785123967	0.21487603305785125
16	16	16.045877602659736	81.95085959648063	18035.76644557639	-58.233008388307454	-38.07131880689725	16854.330021143727	0.30785123966942146	0.16942148760330578
17	17	53.06596435265934	-35.78015665186921	11350.182051494012	87.8882393938174	34.62596319981833	14380.22652777627	0.21694214876033058	0.20661157024793389
18	18	20.003868969166568	-1.5628919617202768	9949.343088230216	-42.88822606576488	-85.42104001753859	13869.497603807366	0.18801652892561985	0.22107438016528927
19	19	10.575837582780071	-93.81085969054524	11949.332535426152	-69.83492358430199	60.33439479633503	7429.178684759682	0.14462809917355371	0.23140495867768596
20	20	-44.08958979510687	-33.3589261446124	15526.799073865288	-88.70533521558832	-70.91484557504118	10337.625885436557	0.26239669421487605	0.17355371900826447
21	21	73.98345251133352	-20.645716538498288	6361.800282229688	-8.317054252828768	107.76409573059112	11361.14202699782	0.16942148760330578	0.26652892561983471
22	22	-65.26761725124632	90.26287074405712	10587.737079384835	-93.81793965811417	59.687286234098394	6102.46228357125	0.20454545454545456	0.17975206611570249
23	23	33.887001582813994	-71.05614733526109	12072.316182792978	-26.655233612125272	-36.07170552155833	10870.323033648996	0.21280991735537191	0.19008264462809918
24	24	-43.27055038230459	-45.86188813374179	16443.267990599932	-41.55160823155309	98.60155728441634	8456.302945253448	0.27892561983471076	0.19214876033057851
25	25	33.288725877564	-46.599417982602304	11712.224308964967	70.59848228097547	55.14009019205514	3800.2047975466126	0.19214876033057851	0.21074380165289255
26	26	88.77257743679361	92.82045007825414	8502.160979449534	-64.50236738622027	50.85282488121479	6063.756063401876	0.18181818181818182	0.23140495867768596
27	27	103.76262397958672	34.34510809012134	7552.601934720864	18.01440466582079	-137.30504851915376	9330.234942555539	0.17148760330578514	0.22107438016528927
28	28	-53.69107339964086	-111.4012335279167	4009.8480801107557	-44.01173962210417	-77.56382223489882	5454.232149738846	0.10743801652892562	0.18595041322314049
29	29	-61.103372461600564	64.334014135822	9508.849992411659	-45.51037262558425	94.88004226901728	20464.18547967816	0.21074380165289255	0.18388429752066116
30	30	-0.9918234684558087	-5.242418034829873	10964.111860760993	-19.070111824651875	-105.20502599985495	11718.498178290745	0.21074380165289255	0.21280991735537191
31	31	72.15734644486712	16.404332260182667	6484.638283812591	28.975618080863	-67.66643821036965	9216.237985945958	0.16528925619834711	0.23553719008264462
32	32	-73.66690523442352	17.74960053256782	12964.106380977815	-77.7841619555044	-104.90200696398674	3926.2617501842356	0.23553719008264462	0.20867768595041322
33	33	-32.465899114989554	38.025273538461875	24592.473159295096	-50.248620946939695	134.58626657530158	4454.205486170891	0.23966942148760331	0.15082644628099173
34	34	-12.852341624145604	-36.54446215127172	7503.184839950797	80.80512689827503	75.34108188354404	6047.865082888869	0.18801652892561985	0.28512396694214875
35	35	65.46676749013491	-68.45655413796126	16265.825498157961	58.76778427756099	-105.88081288309274	5907.973726477179	0.21694214876033058	0.18801652892561985
36	36	43.16348363073303	99.18716116654397	5458.210882567544	74.9944833873927	64.82216848740327	11415.323402604394	0.13429752066115702	0.21487603305785125
37	37	-58.979449831154945	46.26693337070667	18911.154162025294	-1.027104710178719	-79.20195405250607	13301.680623743687	0.28512396694214875	0.13842975206611571
38	38	-11.56846576806186	-60.40645537071332	15621.837194272372	98.17172413789413	41.45416893491836	7947.593132940059	0.31198347107438018	0.1962809917355372
39	39	9.298910111266654	-58.35788673448278	13246.248345522903	118.65308078919628	112.6411124862264	2577.9170099367934	0.23553719008264462	0.25413223140495866
40	40	-61.25523045418826	55.69700501905277	13567.84713265119	-111.19974973139854	96.10197695775918	10280.022377513038	0.20661157024793389	0.21694214876033058
41	41	-16.75013945703123	48.53142307502692	16354.838130983475	120.26345110424467	-60.83819248711286	18968.218566410378	0.28305785123966942	0.1487603305785124
42	42	55.091215953046024	65.19973586666096	17208.273653567612	133.1399007108157	-53.595701449014584	9845.595825686712	0.22520661157024793	0.18801652892561985
43	43	75.60684709130571	-0.38335658938893147	14579.399373578815	-57.67937605635632	-33.05787729810423	12831.055921693127	0.256198347107438	0.18388429752066116
44	44	-80.68551153287707	60.51456162073149	8642.544537511745	-2.5579570975935724	62.18050118663277	8526.23951030261	0.18801652892561985	0.21280991735537191
45	45	102.45802971925154	53.92171142299668	5831.0881891112285	93.19166835263766	29.143199254178995	7239.9660103801925	0.14669421487603307	0.19421487603305784
46	46	27.802185144603992	23.530066323659078	14062.359233294303	-105.5124996910873	71.81933706771048	19396.189431316157	0.24380165289256198	0.17768595041322313
47	47	-106.86014285488811	51.28067893860314	6558.055119343968	115.43020706940041	3.0496974823948335	10572.409196904278	0.16528925619834711	0.20454545454545456
48	48	-45.351680060477364	-27.02416268980383	4850.30994078571	26.57823311715768	88.27055341236758	14482.804533762961	0.128099173553719	0.24380165289256198
49	49	-118.8246730199617	-119.1416892131391	2021.3016640019118	12.516601648408198	38.706207538393954	16748.18536616599	0.066115702479338845	0.13429752066115702
50	50	-24.603649505414957	-87.07122579434636	4440.387355633699	93.9084833668228	83.49448436627108	12525.449099915493	0.128099173553719	0.23760330578512398
51	51	-0.2052587114151187	-23.740752266306988	18205.873222558057	10.375254420545616	17.04061801445644	11738.828376004467	0.32438016528925617	0.14049586776859505
52	52	94.83060435520554	-60.05176667819645	6454.1109461125	41.99479648600078	-38.70014612745547	8619.24737466757	0.17355371900826447	0.17148760330578514
53	53	51.18796393655258	-15.852137044819807	1529.1559482314983	56.06320347163188	-83.45631545524446	18874.446266374856	0.059917355371900828	0.29338842975206614
54	54	61.29975470831158	-3.0608126954242993	12776.344869517427	101.71113088344603	-54.7588114535947	12375.923988337927	0.25826446280991733	0.19421487603305784
55	55	-42.15798865711677	6.955027876492406	11381.287664207015	8.235159757578145	-73.16108501955435	20633.4848698934	0.23760330578512398	0.22727272727272727
56	56	86.00191728727182	111.41140876465693	8334.501944091433	110.09135362939452	-104.46025449314197	14955.284802745024	0.13636363636363635	0.17355371900826447
57	57	75.28976915980164	7.295677897323664	16835.070844740323	27.71303249945828	-80.09723983493231	17346.35789905616	0.23760330578512398	0.21280991735537191
58	58	80.54022895726457	-99.01989063007527	12172.178764886732	-53.7493611456873	-59.468473756354015	16560.24081262218	0.17768595041322313	0.16942148760330578
59	59	-82.11412578726778	-91.8651978321799	10910.858090005582	2.9361641030522776	112.692241182695	9740.578288961093	0.22727272727272727	0.17768595041322313
